[
    {
        "_id": 39,
        "departureAirport": {
            "_id": "4329",
            "IATACode": "LHR",
            "name": "Heathrow"
        },
        "arrivalAirport": {
            "_id": "2232",
            "IATACode": "EWR",
            "name": "Newark Liberty International"
        },
        "lengthInKM": 5578.0,
        "flightNumbers": [
            "1",
            "17"
        ]
    },
    {
        "_id": 83,
        "departureAirport": {
            "_id": "3498",
            "IATACode": "JFK",
            "name": "John F Kennedy International"
        },
        "arrivalAirport": {
            "_id": "4329",
            "IATACode": "LHR",
            "name": "Heathrow"
        },
        "lengthInKM": 5556.0,
        "flightNumbers": [
            "10",
            "112",
            "138",
            "154",
            "26",
            "4",
            "46",
            "46Z",
            "4C"
        ]
    },
    {
        "_id": 15,
        "departureAirport": {
            "_id": "4329",
            "IATACode": "LHR",
            "name": "Heathrow"
        },
        "arrivalAirport": {
            "_id": "411",
            "IATACode": "ATL",
            "name": "Hartsfield-jackson Atlanta International"
        },
        "lengthInKM": 6778.0,
        "flightNumbers": [
            "103",
            "115"
        ]
    },
    {
        "_id": 16,
        "departureAirport": {
            "_id": "411",
            "IATACode": "ATL",
            "name": "Hartsfield-jackson Atlanta International"
        },
        "arrivalAirport": {
            "_id": "4329",
            "IATACode": "LHR",
            "name": "Heathrow"
        },
        "lengthInKM": 6778.0,
        "flightNumbers": [
            "104",
            "104L",
            "116"
        ]
    },
    {
        "_id": 5,
        "departureAirport": {
            "_id": "4329",
            "IATACode": "LHR",
            "name": "Heathrow"
        },
        "arrivalAirport": {
            "_id": "7004",
            "IATACode": "SEA",
            "name": "Seattle-Tacoma International"
        },
        "lengthInKM": 7726.0,
        "flightNumbers": [
            "105"
        ]
    },
    {
        "_id": 6,
        "departureAirport": {
            "_id": "7004",
            "IATACode": "SEA",
            "name": "Seattle-Tacoma International"
        },
        "arrivalAirport": {
            "_id": "4329",
            "IATACode": "LHR",
            "name": "Heathrow"
        },
        "lengthInKM": 7726.0,
        "flightNumbers": [
            "106"
        ]
    },
    {
        "_id": 7,
        "departureAirport": {
            "_id": "4329",
            "IATACode": "LHR",
            "name": "Heathrow"
        },
        "arrivalAirport": {
            "_id": "1936",
            "IATACode": "DTW",
            "name": "Detroit Metropolitan Wayne County"
        },
        "lengthInKM": 6062.0,
        "flightNumbers": [
            "107"
        ]
    },
    {
        "_id": 121,
        "departureAirport": {
            "_id": "4707",
            "IATACode": "MCO",
            "name": "Orlando International"
        },
        "arrivalAirport": {
            "_id": "4654",
            "IATACode": "MAN",
            "name": "Ringway International Airport"
        },
        "lengthInKM": 6817.0,
        "flightNumbers": [
            "1076",
            "1299",
            "74",
            "76",
            "76A",
            "874P"
        ]
    },
    {
        "_id": 152,
        "departureAirport": {
            "_id": "1936",
            "IATACode": "DTW",
            "name": "Detroit Metropolitan Wayne County"
        },
        "arrivalAirport": {
            "_id": "4329",
            "IATACode": "LHR",
            "name": "Heathrow"
        },
        "lengthInKM": 6062.0,
        "flightNumbers": [
            "108",
            "9946"
        ]
    },
    {
        "_id": 10,
        "departureAirport": {
            "_id": "4654",
            "IATACode": "MAN",
            "name": "Ringway International Airport"
        },
        "arrivalAirport": {
            "_id": "411",
            "IATACode": "ATL",
            "name": "Hartsfield-jackson Atlanta International"
        },
        "lengthInKM": 6597.0,
        "flightNumbers": [
            "109"
        ]
    },
    {
        "_id": 11,
        "departureAirport": {
            "_id": "4329",
            "IATACode": "LHR",
            "name": "Heathrow"
        },
        "arrivalAirport": {
            "_id": "876",
            "IATACode": "BOS",
            "name": "Logan International"
        },
        "lengthInKM": 5256.0,
        "flightNumbers": [
            "11"
        ]
    },
    {
        "_id": 12,
        "departureAirport": {
            "_id": "411",
            "IATACode": "ATL",
            "name": "Hartsfield-jackson Atlanta International"
        },
        "arrivalAirport": {
            "_id": "4654",
            "IATACode": "MAN",
            "name": "Ringway International Airport"
        },
        "lengthInKM": 6597.0,
        "flightNumbers": [
            "110"
        ]
    },
    {
        "_id": 124,
        "departureAirport": {
            "_id": "4329",
            "IATACode": "LHR",
            "name": "Heathrow"
        },
        "arrivalAirport": {
            "_id": "3498",
            "IATACode": "JFK",
            "name": "John F Kennedy International"
        },
        "lengthInKM": 5556.0,
        "flightNumbers": [
            "111",
            "137",
            "25",
            "3",
            "45",
            "9"
        ]
    },
    {
        "_id": 84,
        "departureAirport": {
            "_id": "4329",
            "IATACode": "LHR",
            "name": "Heathrow"
        },
        "arrivalAirport": {
            "_id": "4845",
            "IATACode": "MIA",
            "name": "Miami International Airport"
        },
        "lengthInKM": 7121.0,
        "flightNumbers": [
            "117",
            "5"
        ]
    },
    {
        "_id": 146,
        "departureAirport": {
            "_id": "4845",
            "IATACode": "MIA",
            "name": "Miami International Airport"
        },
        "arrivalAirport": {
            "_id": "4329",
            "IATACode": "LHR",
            "name": "Heathrow"
        },
        "lengthInKM": 7121.0,
        "flightNumbers": [
            "118",
            "118A",
            "6",
            "9938"
        ]
    },
    {
        "_id": 123,
        "departureAirport": {
            "_id": "876",
            "IATACode": "BOS",
            "name": "Logan International"
        },
        "arrivalAirport": {
            "_id": "4329",
            "IATACode": "LHR",
            "name": "Heathrow"
        },
        "lengthInKM": 5256.0,
        "flightNumbers": [
            "12",
            "12E",
            "8E"
        ]
    },
    {
        "_id": 21,
        "departureAirport": {
            "_id": "8379",
            "IATACode": "VRA",
            "name": "Juan Gualberto Gomez"
        },
        "arrivalAirport": {
            "_id": "4317",
            "IATACode": "LGW",
            "name": "Gatwick"
        },
        "lengthInKM": 7450.0,
        "flightNumbers": [
            "120"
        ]
    },
    {
        "_id": 22,
        "departureAirport": {
            "_id": "876",
            "IATACode": "BOS",
            "name": "Logan International"
        },
        "arrivalAirport": {
            "_id": "4654",
            "IATACode": "MAN",
            "name": "Ringway International Airport"
        },
        "lengthInKM": 5077.0,
        "flightNumbers": [
            "122"
        ]
    },
    {
        "_id": 23,
        "departureAirport": {
            "_id": "4654",
            "IATACode": "MAN",
            "name": "Ringway International Airport"
        },
        "arrivalAirport": {
            "_id": "7038",
            "IATACode": "SFO",
            "name": "San Francisco International"
        },
        "lengthInKM": 8402.0,
        "flightNumbers": [
            "125"
        ]
    },
    {
        "_id": 24,
        "departureAirport": {
            "_id": "7038",
            "IATACode": "SFO",
            "name": "San Francisco International"
        },
        "arrivalAirport": {
            "_id": "4654",
            "IATACode": "MAN",
            "name": "Ringway International Airport"
        },
        "lengthInKM": 8402.0,
        "flightNumbers": [
            "126"
        ]
    },
    {
        "_id": 25,
        "departureAirport": {
            "_id": "4654",
            "IATACode": "MAN",
            "name": "Ringway International Airport"
        },
        "arrivalAirport": {
            "_id": "3498",
            "IATACode": "JFK",
            "name": "John F Kennedy International"
        },
        "lengthInKM": 5377.0,
        "flightNumbers": [
            "127"
        ]
    },
    {
        "_id": 26,
        "departureAirport": {
            "_id": "3498",
            "IATACode": "JFK",
            "name": "John F Kennedy International"
        },
        "arrivalAirport": {
            "_id": "4654",
            "IATACode": "MAN",
            "name": "Ringway International Airport"
        },
        "lengthInKM": 5377.0,
        "flightNumbers": [
            "128"
        ]
    },
    {
        "_id": 29,
        "departureAirport": {
            "_id": "4329",
            "IATACode": "LHR",
            "name": "Heathrow"
        },
        "arrivalAirport": {
            "_id": "673",
            "IATACode": "BGI",
            "name": "Grantley Adams International"
        },
        "lengthInKM": 6752.0,
        "flightNumbers": [
            "131"
        ]
    },
    {
        "_id": 149,
        "departureAirport": {
            "_id": "673",
            "IATACode": "BGI",
            "name": "Grantley Adams International"
        },
        "arrivalAirport": {
            "_id": "4329",
            "IATACode": "LHR",
            "name": "Heathrow"
        },
        "lengthInKM": 6752.0,
        "flightNumbers": [
            "132",
            "9941"
        ]
    },
    {
        "_id": 114,
        "departureAirport": {
            "_id": "4189",
            "IATACode": "LAX",
            "name": "Los Angeles International"
        },
        "arrivalAirport": {
            "_id": "4329",
            "IATACode": "LHR",
            "name": "Heathrow"
        },
        "lengthInKM": 8781.0,
        "flightNumbers": [
            "142",
            "24",
            "24A",
            "308",
            "8",
            "828P"
        ]
    },
    {
        "_id": 82,
        "departureAirport": {
            "_id": "4317",
            "IATACode": "LGW",
            "name": "Gatwick"
        },
        "arrivalAirport": {
            "_id": "4707",
            "IATACode": "MCO",
            "name": "Orlando International"
        },
        "lengthInKM": 7006.0,
        "flightNumbers": [
            "15",
            "27",
            "49"
        ]
    },
    {
        "_id": 154,
        "departureAirport": {
            "_id": "4707",
            "IATACode": "MCO",
            "name": "Orlando International"
        },
        "arrivalAirport": {
            "_id": "4317",
            "IATACode": "LGW",
            "name": "Gatwick"
        },
        "lengthInKM": 7006.0,
        "flightNumbers": [
            "16",
            "16A",
            "184P",
            "28",
            "50",
            "50P",
            "816P",
            "9951"
        ]
    },
    {
        "_id": 37,
        "departureAirport": {
            "_id": "4707",
            "IATACode": "MCO",
            "name": "Orlando International"
        },
        "arrivalAirport": {
            "_id": "659",
            "IATACode": "BFS",
            "name": "Aldergrove International Airport"
        },
        "lengthInKM": 6541.0,
        "flightNumbers": [
            "162"
        ]
    },
    {
        "_id": 151,
        "departureAirport": {
            "_id": "2232",
            "IATACode": "EWR",
            "name": "Newark Liberty International"
        },
        "arrivalAirport": {
            "_id": "4329",
            "IATACode": "LHR",
            "name": "Heathrow"
        },
        "lengthInKM": 5578.0,
        "flightNumbers": [
            "18",
            "2",
            "9944"
        ]
    },
    {
        "_id": 74,
        "departureAirport": {
            "_id": "4329",
            "IATACode": "LHR",
            "name": "Heathrow"
        },
        "arrivalAirport": {
            "_id": "7038",
            "IATACode": "SFO",
            "name": "San Francisco International"
        },
        "lengthInKM": 8640.0,
        "flightNumbers": [
            "19",
            "41"
        ]
    },
    {
        "_id": 75,
        "departureAirport": {
            "_id": "7038",
            "IATACode": "SFO",
            "name": "San Francisco International"
        },
        "arrivalAirport": {
            "_id": "4329",
            "IATACode": "LHR",
            "name": "Heathrow"
        },
        "lengthInKM": 8640.0,
        "flightNumbers": [
            "20",
            "42"
        ]
    },
    {
        "_id": 45,
        "departureAirport": {
            "_id": "4329",
            "IATACode": "LHR",
            "name": "Heathrow"
        },
        "arrivalAirport": {
            "_id": "2967",
            "IATACode": "HKG",
            "name": "Hong Kong International"
        },
        "lengthInKM": 9648.0,
        "flightNumbers": [
            "206"
        ]
    },
    {
        "_id": 46,
        "departureAirport": {
            "_id": "2967",
            "IATACode": "HKG",
            "name": "Hong Kong International"
        },
        "arrivalAirport": {
            "_id": "4329",
            "IATACode": "LHR",
            "name": "Heathrow"
        },
        "lengthInKM": 9648.0,
        "flightNumbers": [
            "207"
        ]
    },
    {
        "_id": 47,
        "departureAirport": {
            "_id": "4329",
            "IATACode": "LHR",
            "name": "Heathrow"
        },
        "arrivalAirport": {
            "_id": "3159",
            "IATACode": "IAD",
            "name": "Washington Dulles International"
        },
        "lengthInKM": 5917.0,
        "flightNumbers": [
            "21"
        ]
    },
    {
        "_id": 49,
        "departureAirport": {
            "_id": "3159",
            "IATACode": "IAD",
            "name": "Washington Dulles International"
        },
        "arrivalAirport": {
            "_id": "4329",
            "IATACode": "LHR",
            "name": "Heathrow"
        },
        "lengthInKM": 5917.0,
        "flightNumbers": [
            "22",
            "22A"
        ]
    },
    {
        "_id": 100,
        "departureAirport": {
            "_id": "4329",
            "IATACode": "LHR",
            "name": "Heathrow"
        },
        "arrivalAirport": {
            "_id": "4189",
            "IATACode": "LAX",
            "name": "Los Angeles International"
        },
        "lengthInKM": 8781.0,
        "flightNumbers": [
            "23",
            "7"
        ]
    },
    {
        "_id": 54,
        "departureAirport": {
            "_id": "4329",
            "IATACode": "LHR",
            "name": "Heathrow"
        },
        "arrivalAirport": {
            "_id": "6392",
            "IATACode": "PVG",
            "name": "Shanghai Pudong International"
        },
        "lengthInKM": 9261.0,
        "flightNumbers": [
            "250"
        ]
    },
    {
        "_id": 55,
        "departureAirport": {
            "_id": "6392",
            "IATACode": "PVG",
            "name": "Shanghai Pudong International"
        },
        "arrivalAirport": {
            "_id": "4329",
            "IATACode": "LHR",
            "name": "Heathrow"
        },
        "lengthInKM": 9261.0,
        "flightNumbers": [
            "251"
        ]
    },
    {
        "_id": 88,
        "departureAirport": {
            "_id": "4317",
            "IATACode": "LGW",
            "name": "Gatwick"
        },
        "arrivalAirport": {
            "_id": "673",
            "IATACode": "BGI",
            "name": "Grantley Adams International"
        },
        "lengthInKM": 6762.0,
        "flightNumbers": [
            "29",
            "57"
        ]
    },
    {
        "_id": 60,
        "departureAirport": {
            "_id": "9586",
            "IATACode": "YYT",
            "name": "St. John's International"
        },
        "arrivalAirport": {
            "_id": "4329",
            "IATACode": "LHR",
            "name": "Heathrow"
        },
        "lengthInKM": 3727.0,
        "flightNumbers": [
            "2A"
        ]
    },
    {
        "_id": 115,
        "departureAirport": {
            "_id": "673",
            "IATACode": "BGI",
            "name": "Grantley Adams International"
        },
        "arrivalAirport": {
            "_id": "4317",
            "IATACode": "LGW",
            "name": "Gatwick"
        },
        "lengthInKM": 6762.0,
        "flightNumbers": [
            "30",
            "58",
            "830P"
        ]
    },
    {
        "_id": 63,
        "departureAirport": {
            "_id": "4329",
            "IATACode": "LHR",
            "name": "Heathrow"
        },
        "arrivalAirport": {
            "_id": "1744",
            "IATACode": "DEL",
            "name": "Indira Gandhi International"
        },
        "lengthInKM": 6744.0,
        "flightNumbers": [
            "300"
        ]
    },
    {
        "_id": 64,
        "departureAirport": {
            "_id": "1744",
            "IATACode": "DEL",
            "name": "Indira Gandhi International"
        },
        "arrivalAirport": {
            "_id": "4329",
            "IATACode": "LHR",
            "name": "Heathrow"
        },
        "lengthInKM": 6744.0,
        "flightNumbers": [
            "301"
        ]
    },
    {
        "_id": 66,
        "departureAirport": {
            "_id": "4317",
            "IATACode": "LGW",
            "name": "Gatwick"
        },
        "arrivalAirport": {
            "_id": "295",
            "IATACode": "ANU",
            "name": "V. C. Bird International"
        },
        "lengthInKM": 6571.0,
        "flightNumbers": [
            "33"
        ]
    },
    {
        "_id": 67,
        "departureAirport": {
            "_id": "295",
            "IATACode": "ANU",
            "name": "V. C. Bird International"
        },
        "arrivalAirport": {
            "_id": "4317",
            "IATACode": "LGW",
            "name": "Gatwick"
        },
        "lengthInKM": 6571.0,
        "flightNumbers": [
            "34"
        ]
    },
    {
        "_id": 68,
        "departureAirport": {
            "_id": "4654",
            "IATACode": "MAN",
            "name": "Ringway International Airport"
        },
        "arrivalAirport": {
            "_id": "2627",
            "IATACode": "GLA",
            "name": "Glasgow International"
        },
        "lengthInKM": 311.0,
        "flightNumbers": [
            "375"
        ]
    },
    {
        "_id": 69,
        "departureAirport": {
            "_id": "4329",
            "IATACode": "LHR",
            "name": "Heathrow"
        },
        "arrivalAirport": {
            "_id": "5818",
            "IATACode": "ORD",
            "name": "Chicago O'hare International"
        },
        "lengthInKM": 6362.0,
        "flightNumbers": [
            "39"
        ]
    },
    {
        "_id": 71,
        "departureAirport": {
            "_id": "5818",
            "IATACode": "ORD",
            "name": "Chicago O'hare International"
        },
        "arrivalAirport": {
            "_id": "4329",
            "IATACode": "LHR",
            "name": "Heathrow"
        },
        "lengthInKM": 6362.0,
        "flightNumbers": [
            "40"
        ]
    },
    {
        "_id": 72,
        "departureAirport": {
            "_id": "4329",
            "IATACode": "LHR",
            "name": "Heathrow"
        },
        "arrivalAirport": {
            "_id": "1966",
            "IATACode": "DXB",
            "name": "Dubai"
        },
        "lengthInKM": 5504.0,
        "flightNumbers": [
            "400"
        ]
    },
    {
        "_id": 73,
        "departureAirport": {
            "_id": "1966",
            "IATACode": "DXB",
            "name": "Dubai"
        },
        "arrivalAirport": {
            "_id": "4329",
            "IATACode": "LHR",
            "name": "Heathrow"
        },
        "lengthInKM": 5504.0,
        "flightNumbers": [
            "401"
        ]
    },
    {
        "_id": 137,
        "departureAirport": {
            "_id": "4317",
            "IATACode": "LGW",
            "name": "Gatwick"
        },
        "arrivalAirport": {
            "_id": "4184",
            "IATACode": "LAS",
            "name": "Mc Carran International"
        },
        "lengthInKM": 8454.0,
        "flightNumbers": [
            "43",
            "951"
        ]
    },
    {
        "_id": 139,
        "departureAirport": {
            "_id": "4184",
            "IATACode": "LAS",
            "name": "Mc Carran International"
        },
        "arrivalAirport": {
            "_id": "4317",
            "IATACode": "LGW",
            "name": "Gatwick"
        },
        "lengthInKM": 8454.0,
        "flightNumbers": [
            "44",
            "952"
        ]
    },
    {
        "_id": 78,
        "departureAirport": {
            "_id": "9590",
            "IATACode": "YYZ",
            "name": "Lester B. Pearson International"
        },
        "arrivalAirport": {
            "_id": "4317",
            "IATACode": "LGW",
            "name": "Gatwick"
        },
        "lengthInKM": 5755.0,
        "flightNumbers": [
            "44B"
        ]
    },
    {
        "_id": 87,
        "departureAirport": {
            "_id": "1756",
            "IATACode": "DFW",
            "name": "Dallas/Fort Worth International"
        },
        "arrivalAirport": {
            "_id": "4184",
            "IATACode": "LAS",
            "name": "Mc Carran International"
        },
        "lengthInKM": 1698.0,
        "flightNumbers": [
            "5135"
        ]
    },
    {
        "_id": 91,
        "departureAirport": {
            "_id": "4329",
            "IATACode": "LHR",
            "name": "Heathrow"
        },
        "arrivalAirport": {
            "_id": "3570",
            "IATACode": "JNB",
            "name": "Oliver Reginald Tambo International (Jan Smuts International)"
        },
        "lengthInKM": 9044.0,
        "flightNumbers": [
            "601"
        ]
    },
    {
        "_id": 92,
        "departureAirport": {
            "_id": "3570",
            "IATACode": "JNB",
            "name": "Oliver Reginald Tambo International (Jan Smuts International)"
        },
        "arrivalAirport": {
            "_id": "4329",
            "IATACode": "LHR",
            "name": "Heathrow"
        },
        "lengthInKM": 9044.0,
        "flightNumbers": [
            "602"
        ]
    },
    {
        "_id": 93,
        "departureAirport": {
            "_id": "4317",
            "IATACode": "LGW",
            "name": "Gatwick"
        },
        "arrivalAirport": {
            "_id": "2859",
            "IATACode": "HAV",
            "name": "Jose Marti International"
        },
        "lengthInKM": 7521.0,
        "flightNumbers": [
            "63"
        ]
    },
    {
        "_id": 94,
        "departureAirport": {
            "_id": "2859",
            "IATACode": "HAV",
            "name": "Jose Marti International"
        },
        "arrivalAirport": {
            "_id": "4317",
            "IATACode": "LGW",
            "name": "Gatwick"
        },
        "lengthInKM": 7521.0,
        "flightNumbers": [
            "64"
        ]
    },
    {
        "_id": 95,
        "departureAirport": {
            "_id": "4317",
            "IATACode": "LGW",
            "name": "Gatwick"
        },
        "arrivalAirport": {
            "_id": "4676",
            "IATACode": "MBJ",
            "name": "Sangster International"
        },
        "lengthInKM": 7579.0,
        "flightNumbers": [
            "65"
        ]
    },
    {
        "_id": 96,
        "departureAirport": {
            "_id": "4329",
            "IATACode": "LHR",
            "name": "Heathrow"
        },
        "arrivalAirport": {
            "_id": "4458",
            "IATACode": "LOS",
            "name": "Murtala Muhammed"
        },
        "lengthInKM": 4989.0,
        "flightNumbers": [
            "651"
        ]
    },
    {
        "_id": 97,
        "departureAirport": {
            "_id": "4458",
            "IATACode": "LOS",
            "name": "Murtala Muhammed"
        },
        "arrivalAirport": {
            "_id": "4329",
            "IATACode": "LHR",
            "name": "Heathrow"
        },
        "lengthInKM": 4989.0,
        "flightNumbers": [
            "652"
        ]
    },
    {
        "_id": 99,
        "departureAirport": {
            "_id": "4676",
            "IATACode": "MBJ",
            "name": "Sangster International"
        },
        "arrivalAirport": {
            "_id": "4317",
            "IATACode": "LGW",
            "name": "Gatwick"
        },
        "lengthInKM": 7579.0,
        "flightNumbers": [
            "66",
            "66A"
        ]
    },
    {
        "_id": 101,
        "departureAirport": {
            "_id": "2627",
            "IATACode": "GLA",
            "name": "Glasgow International"
        },
        "arrivalAirport": {
            "_id": "4707",
            "IATACode": "MCO",
            "name": "Orlando International"
        },
        "lengthInKM": 6638.0,
        "flightNumbers": [
            "71"
        ]
    },
    {
        "_id": 120,
        "departureAirport": {
            "_id": "4707",
            "IATACode": "MCO",
            "name": "Orlando International"
        },
        "arrivalAirport": {
            "_id": "2627",
            "IATACode": "GLA",
            "name": "Glasgow International"
        },
        "lengthInKM": 6638.0,
        "flightNumbers": [
            "72",
            "871P"
        ]
    },
    {
        "_id": 105,
        "departureAirport": {
            "_id": "4654",
            "IATACode": "MAN",
            "name": "Ringway International Airport"
        },
        "arrivalAirport": {
            "_id": "4707",
            "IATACode": "MCO",
            "name": "Orlando International"
        },
        "lengthInKM": 6817.0,
        "flightNumbers": [
            "73",
            "75"
        ]
    },
    {
        "_id": 108,
        "departureAirport": {
            "_id": "4654",
            "IATACode": "MAN",
            "name": "Ringway International Airport"
        },
        "arrivalAirport": {
            "_id": "673",
            "IATACode": "BGI",
            "name": "Grantley Adams International"
        },
        "lengthInKM": 6699.0,
        "flightNumbers": [
            "77"
        ]
    },
    {
        "_id": 155,
        "departureAirport": {
            "_id": "673",
            "IATACode": "BGI",
            "name": "Grantley Adams International"
        },
        "arrivalAirport": {
            "_id": "4654",
            "IATACode": "MAN",
            "name": "Ringway International Airport"
        },
        "lengthInKM": 6699.0,
        "flightNumbers": [
            "78",
            "78A",
            "9953"
        ]
    },
    {
        "_id": 153,
        "departureAirport": {
            "_id": "5106",
            "IATACode": "MSP",
            "name": "Minneapolis - St. Paul International"
        },
        "arrivalAirport": {
            "_id": "4329",
            "IATACode": "LHR",
            "name": "Heathrow"
        },
        "lengthInKM": 6462.0,
        "flightNumbers": [
            "826P",
            "951P",
            "994Y"
        ]
    },
    {
        "_id": 116,
        "departureAirport": {
            "_id": "3498",
            "IATACode": "JFK",
            "name": "John F Kennedy International"
        },
        "arrivalAirport": {
            "_id": "411",
            "IATACode": "ATL",
            "name": "Hartsfield-jackson Atlanta International"
        },
        "lengthInKM": 1223.0,
        "flightNumbers": [
            "846P"
        ]
    },
    {
        "_id": 126,
        "departureAirport": {
            "_id": "8220",
            "IATACode": "UVF",
            "name": "Hewanorra"
        },
        "arrivalAirport": {
            "_id": "4317",
            "IATACode": "LGW",
            "name": "Gatwick"
        },
        "lengthInKM": 6804.0,
        "flightNumbers": [
            "84P",
            "90A",
            "90R"
        ]
    },
    {
        "_id": 118,
        "departureAirport": {
            "_id": "4654",
            "IATACode": "MAN",
            "name": "Ringway International Airport"
        },
        "arrivalAirport": {
            "_id": "4184",
            "IATACode": "LAS",
            "name": "Mc Carran International"
        },
        "lengthInKM": 8186.0,
        "flightNumbers": [
            "85"
        ]
    },
    {
        "_id": 119,
        "departureAirport": {
            "_id": "4184",
            "IATACode": "LAS",
            "name": "Mc Carran International"
        },
        "arrivalAirport": {
            "_id": "4654",
            "IATACode": "MAN",
            "name": "Ringway International Airport"
        },
        "lengthInKM": 8186.0,
        "flightNumbers": [
            "86"
        ]
    },
    {
        "_id": 122,
        "departureAirport": {
            "_id": "411",
            "IATACode": "ATL",
            "name": "Hartsfield-jackson Atlanta International"
        },
        "arrivalAirport": {
            "_id": "4707",
            "IATACode": "MCO",
            "name": "Orlando International"
        },
        "lengthInKM": 650.0,
        "flightNumbers": [
            "876P"
        ]
    },
    {
        "_id": 127,
        "departureAirport": {
            "_id": "5106",
            "IATACode": "MSP",
            "name": "Minneapolis - St. Paul International"
        },
        "arrivalAirport": {
            "_id": "3498",
            "IATACode": "JFK",
            "name": "John F Kennedy International"
        },
        "lengthInKM": 1654.0,
        "flightNumbers": [
            "926P"
        ]
    },
    {
        "_id": 128,
        "departureAirport": {
            "_id": "4317",
            "IATACode": "LGW",
            "name": "Gatwick"
        },
        "arrivalAirport": {
            "_id": "1586",
            "IATACode": "CUN",
            "name": "Canc\u00fan International"
        },
        "lengthInKM": 7990.0,
        "flightNumbers": [
            "93"
        ]
    },
    {
        "_id": 150,
        "departureAirport": {
            "_id": "3451",
            "IATACode": "JAX",
            "name": "Jacksonville,"
        },
        "arrivalAirport": {
            "_id": "4329",
            "IATACode": "LHR",
            "name": "Heathrow"
        },
        "lengthInKM": 6841.0,
        "flightNumbers": [
            "931P",
            "9930",
            "9942"
        ]
    },
    {
        "_id": 130,
        "departureAirport": {
            "_id": "1043",
            "IATACode": "BWI",
            "name": "Baltimore/Washington International Thurgood Marshall"
        },
        "arrivalAirport": {
            "_id": "3498",
            "IATACode": "JFK",
            "name": "John F Kennedy International"
        },
        "lengthInKM": 295.0,
        "flightNumbers": [
            "933P"
        ]
    },
    {
        "_id": 131,
        "departureAirport": {
            "_id": "1388",
            "IATACode": "CLT",
            "name": "Charlotte Douglas"
        },
        "arrivalAirport": {
            "_id": "4317",
            "IATACode": "LGW",
            "name": "Gatwick"
        },
        "lengthInKM": 6454.0,
        "flightNumbers": [
            "9366"
        ]
    },
    {
        "_id": 132,
        "departureAirport": {
            "_id": "5115",
            "IATACode": "MSY",
            "name": "Louis Armstrong New Orl\u00e9ans International Airport"
        },
        "arrivalAirport": {
            "_id": "3498",
            "IATACode": "JFK",
            "name": "John F Kennedy International"
        },
        "lengthInKM": 1903.0,
        "flightNumbers": [
            "937P"
        ]
    },
    {
        "_id": 133,
        "departureAirport": {
            "_id": "1374",
            "IATACode": "CLE",
            "name": "Hopkins International"
        },
        "arrivalAirport": {
            "_id": "3498",
            "IATACode": "JFK",
            "name": "John F Kennedy International"
        },
        "lengthInKM": 682.0,
        "flightNumbers": [
            "939P"
        ]
    },
    {
        "_id": 134,
        "departureAirport": {
            "_id": "1586",
            "IATACode": "CUN",
            "name": "Canc\u00fan International"
        },
        "arrivalAirport": {
            "_id": "4317",
            "IATACode": "LGW",
            "name": "Gatwick"
        },
        "lengthInKM": 7990.0,
        "flightNumbers": [
            "94"
        ]
    },
    {
        "_id": 135,
        "departureAirport": {
            "_id": "411",
            "IATACode": "ATL",
            "name": "Hartsfield-jackson Atlanta International"
        },
        "arrivalAirport": {
            "_id": "3159",
            "IATACode": "IAD",
            "name": "Washington Dulles International"
        },
        "lengthInKM": 861.0,
        "flightNumbers": [
            "948P"
        ]
    },
    {
        "_id": 136,
        "departureAirport": {
            "_id": "4707",
            "IATACode": "MCO",
            "name": "Orlando International"
        },
        "arrivalAirport": {
            "_id": "4329",
            "IATACode": "LHR",
            "name": "Heathrow"
        },
        "lengthInKM": 6979.0,
        "flightNumbers": [
            "950P"
        ]
    },
    {
        "_id": 140,
        "departureAirport": {
            "_id": "4329",
            "IATACode": "LHR",
            "name": "Heathrow"
        },
        "arrivalAirport": {
            "_id": "4184",
            "IATACode": "LAS",
            "name": "Mc Carran International"
        },
        "lengthInKM": 8416.0,
        "flightNumbers": [
            "961"
        ]
    },
    {
        "_id": 141,
        "departureAirport": {
            "_id": "5818",
            "IATACode": "ORD",
            "name": "Chicago O'hare International"
        },
        "arrivalAirport": {
            "_id": "4317",
            "IATACode": "LGW",
            "name": "Gatwick"
        },
        "lengthInKM": 6396.0,
        "flightNumbers": [
            "973P"
        ]
    },
    {
        "_id": 142,
        "departureAirport": {
            "_id": "1374",
            "IATACode": "CLE",
            "name": "Hopkins International"
        },
        "arrivalAirport": {
            "_id": "4329",
            "IATACode": "LHR",
            "name": "Heathrow"
        },
        "lengthInKM": 6024.0,
        "flightNumbers": [
            "979P"
        ]
    },
    {
        "_id": 144,
        "departureAirport": {
            "_id": "5106",
            "IATACode": "MSP",
            "name": "Minneapolis - St. Paul International"
        },
        "arrivalAirport": {
            "_id": "4317",
            "IATACode": "LGW",
            "name": "Gatwick"
        },
        "lengthInKM": 6498.0,
        "flightNumbers": [
            "9932"
        ]
    },
    {
        "_id": 145,
        "departureAirport": {
            "_id": "2344",
            "IATACode": "FLL",
            "name": "Fort Lauderdale\u2013Hollywood International"
        },
        "arrivalAirport": {
            "_id": "4329",
            "IATACode": "LHR",
            "name": "Heathrow"
        },
        "lengthInKM": 7089.0,
        "flightNumbers": [
            "9934"
        ]
    },
    {
        "_id": 147,
        "departureAirport": {
            "_id": "3498",
            "IATACode": "JFK",
            "name": "John F Kennedy International"
        },
        "arrivalAirport": {
            "_id": "5106",
            "IATACode": "MSP",
            "name": "Minneapolis - St. Paul International"
        },
        "lengthInKM": 1654.0,
        "flightNumbers": [
            "993P"
        ]
    },
    {
        "_id": 148,
        "departureAirport": {
            "_id": "3286",
            "IATACode": "IND",
            "name": "Indianapolis International"
        },
        "arrivalAirport": {
            "_id": "4329",
            "IATACode": "LHR",
            "name": "Heathrow"
        },
        "lengthInKM": 6431.0,
        "flightNumbers": [
            "9940"
        ]
    },
    {
        "_id": 156,
        "departureAirport": {
            "_id": "6091",
            "IATACode": "PHL",
            "name": "Philadelphia International"
        },
        "arrivalAirport": {
            "_id": "363",
            "IATACode": "ARN",
            "name": "Arlanda"
        },
        "lengthInKM": 6452.0,
        "flightNumbers": [
            "9976"
        ]
    },
    {
        "_id": 157,
        "departureAirport": {
            "_id": "3498",
            "IATACode": "JFK",
            "name": "John F Kennedy International"
        },
        "arrivalAirport": {
            "_id": "363",
            "IATACode": "ARN",
            "name": "Arlanda"
        },
        "lengthInKM": 6310.0,
        "flightNumbers": [
            "9978"
        ]
    }
]